tb_design/tb_univ_cntr/tb_univ_cntr.vcd
$date
	Thu Dec 21 18:58:08 2023
$end
$version
	Icarus Verilog
$end
$timescale
	1ns
$end
$scope module tb_univ_cntr $end
$var wire 4 ! z [3:0] $end
$var parameter 32 " n $end
$var parameter 32 # t $end
$var reg 1 $ clk $end
$var reg 4 % d_in [3:0] $end
$var reg 1 & ld $end
$var reg 1 ' rst $end
$var reg 1 ( up $end
$scope module DUT $end
$var wire 1 $ clk $end
$var wire 4 ) d_in [3:0] $end
$var wire 1 & ld $end
$var wire 1 ' rst $end
$var wire 1 ( up $end
$var wire 4 * z [3:0] $end
$var parameter 32 + n $end
$var reg 4 , z_nxt [3:0] $end
$var reg 4 - z_reg [3:0] $end
$upscope $end
$upscope $end
$enddefinitions $end
$comment Show the parameter values. $end
$dumpall
b100 +
b1010 #
b100 "
$end
#0
$dumpvars
bx -
bx ,
bx *
b1000 )
1(
0'
0&
b1000 %
0$
bx !
$end
#5
b1 ,
b0 !
b0 *
b0 -
1$
#10
0$
#15
1$
#20
0$
1'
#25
b10 ,
b1 !
b1 *
b1 -
1$
#30
0$
#35
b11 ,
b10 !
b10 *
b10 -
1$
#40
0$
#45
b100 ,
b11 !
b11 *
b11 -
1$
#50
0$
#55
b101 ,
b100 !
b100 *
b100 -
1$
#60
0$
#65
b110 ,
b101 !
b101 *
b101 -
1$
#70
0$
#75
b111 ,
b110 !
b110 *
b110 -
1$
#80
0$
#85
b1000 ,
b111 !
b111 *
b111 -
1$
#90
0$
#95
b1001 ,
b1000 !
b1000 *
b1000 -
1$
#100
0$
#105
b1010 ,
b1001 !
b1001 *
b1001 -
1$
#110
0$
#115
b1011 ,
b1010 !
b1010 *
b1010 -
1$
#120
0$
#125
b1100 ,
b1011 !
b1011 *
b1011 -
1$
#130
0$
#135
b1101 ,
b1100 !
b1100 *
b1100 -
1$
#140
0$
#145
b1110 ,
b1101 !
b1101 *
b1101 -
1$
#150
0$
#155
b1111 ,
b1110 !
b1110 *
b1110 -
1$
#160
0$
#165
b0 ,
b1111 !
b1111 *
b1111 -
1$
#170
0$
#175
b1 ,
b0 !
b0 *
b0 -
1$
#180
b1111 ,
0(
0$
#185
b1110 ,
b1111 !
b1111 *
b1111 -
1$
#190
0$
#195
b1101 ,
b1110 !
b1110 *
b1110 -
1$
#200
0$
#205
b1100 ,
b1101 !
b1101 *
b1101 -
1$
#210
0$
#215
b1011 ,
b1100 !
b1100 *
b1100 -
1$
#220
0$
#225
b1010 ,
b1011 !
b1011 *
b1011 -
1$
#230
0$
#235
b1001 ,
b1010 !
b1010 *
b1010 -
1$
#240
0$
#245
b1000 ,
b1001 !
b1001 *
b1001 -
1$
#250
0$
#255
b111 ,
b1000 !
b1000 *
b1000 -
1$
#260
0$
#265
b110 ,
b111 !
b111 *
b111 -
1$
#270
0$
#275
b101 ,
b110 !
b110 *
b110 -
1$
#280
0$
#285
b100 ,
b101 !
b101 *
b101 -
1$
#290
b101 ,
1(
1&
0$
#295
1$
#300
b110 ,
0&
0$
#305
b111 ,
b110 !
b110 *
b110 -
1$
#310
0$
#315
b1000 ,
b111 !
b111 *
b111 -
1$
#320
0$
#325
b1001 ,
b1000 !
b1000 *
b1000 -
1$
#330
0$
#335
b1010 ,
b1001 !
b1001 *
b1001 -
1$
#340
0$
#345
b1011 ,
b1010 !
b1010 *
b1010 -
1$
#350
0$
#355
b1100 ,
b1011 !
b1011 *
b1011 -
1$
#360
0$
#365
b1101 ,
b1100 !
b1100 *
b1100 -
1$
#370
0$
#375
b1110 ,
b1101 !
b1101 *
b1101 -
1$
#380
0$
#385
b1111 ,
b1110 !
b1110 *
b1110 -
1$
#390
0$
#395
b0 ,
b1111 !
b1111 *
b1111 -
1$
#400
0$
#405
b1 ,
b0 !
b0 *
b0 -
1$
#410
0$
#415
b10 ,
b1 !
b1 *
b1 -
1$
#420
0$
#425
b11 ,
b10 !
b10 *
b10 -
1$
#430
0$
#435
b100 ,
b11 !
b11 *
b11 -
1$
#440
0$
#445
b101 ,
b100 !
b100 *
b100 -
1$
#450
0$
#455
b110 ,
b101 !
b101 *
b101 -
1$
#460
0$
#465
b111 ,
b110 !
b110 *
b110 -
1$
#470
0$
#475
b1000 ,
b111 !
b111 *
b111 -
1$
#480
0$
#485
b1001 ,
b1000 !
b1000 *
b1000 -
1$
#490
0$
#495
b1010 ,
b1001 !
b1001 *
b1001 -
1$
#500
0$
#505
b1011 ,
b1010 !
b1010 *
b1010 -
1$
#510
b1010 ,
1&
0$
